-- Merging decision tree log ---
manifest
ADDED from D:\amit_workspace_android\Jewerly\app\src\main\AndroidManifest.xml:2:1-97:12
	package
		ADDED from D:\amit_workspace_android\Jewerly\app\src\main\AndroidManifest.xml:3:5-34
		INJECTED from D:\amit_workspace_android\Jewerly\app\src\main\AndroidManifest.xml
		INJECTED from D:\amit_workspace_android\Jewerly\app\src\main\AndroidManifest.xml
	android:versionName
		INJECTED from D:\amit_workspace_android\Jewerly\app\src\main\AndroidManifest.xml
		INJECTED from D:\amit_workspace_android\Jewerly\app\src\main\AndroidManifest.xml
	xmlns:android
		ADDED from D:\amit_workspace_android\Jewerly\app\src\main\AndroidManifest.xml:2:11-69
	android:versionCode
		INJECTED from D:\amit_workspace_android\Jewerly\app\src\main\AndroidManifest.xml
		INJECTED from D:\amit_workspace_android\Jewerly\app\src\main\AndroidManifest.xml
uses-permission#android.permission.INTERNET
ADDED from D:\amit_workspace_android\Jewerly\app\src\main\AndroidManifest.xml:5:5-67
	android:name
		ADDED from D:\amit_workspace_android\Jewerly\app\src\main\AndroidManifest.xml:5:22-64
uses-permission#android.permission.WRITE_EXTERNAL_STORAGE
ADDED from D:\amit_workspace_android\Jewerly\app\src\main\AndroidManifest.xml:6:5-81
	android:name
		ADDED from D:\amit_workspace_android\Jewerly\app\src\main\AndroidManifest.xml:6:22-78
uses-permission#android.permission.ACCESS_NETWORK_STATE
ADDED from D:\amit_workspace_android\Jewerly\app\src\main\AndroidManifest.xml:7:5-79
	android:name
		ADDED from D:\amit_workspace_android\Jewerly\app\src\main\AndroidManifest.xml:7:22-76
uses-permission#android.permission.READ_EXTERNAL_STORAGE
ADDED from D:\amit_workspace_android\Jewerly\app\src\main\AndroidManifest.xml:8:5-80
	android:name
		ADDED from D:\amit_workspace_android\Jewerly\app\src\main\AndroidManifest.xml:8:22-77
uses-permission#android.permission.WRITE_INTERNAL_STORAGE
ADDED from D:\amit_workspace_android\Jewerly\app\src\main\AndroidManifest.xml:9:5-81
	android:name
		ADDED from D:\amit_workspace_android\Jewerly\app\src\main\AndroidManifest.xml:9:22-78
uses-permission#android.permission.STORAGE
ADDED from D:\amit_workspace_android\Jewerly\app\src\main\AndroidManifest.xml:11:5-66
	android:name
		ADDED from D:\amit_workspace_android\Jewerly\app\src\main\AndroidManifest.xml:11:22-63
uses-permission#android.permission.WRITE_SETTINGS
ADDED from D:\amit_workspace_android\Jewerly\app\src\main\AndroidManifest.xml:12:5-73
	android:name
		ADDED from D:\amit_workspace_android\Jewerly\app\src\main\AndroidManifest.xml:12:22-70
uses-permission#android.permission.READ_PHONE_STATE
ADDED from D:\amit_workspace_android\Jewerly\app\src\main\AndroidManifest.xml:13:5-75
	android:name
		ADDED from D:\amit_workspace_android\Jewerly\app\src\main\AndroidManifest.xml:13:22-72
uses-permission#android.permission.GET_ACCOUNTS
ADDED from D:\amit_workspace_android\Jewerly\app\src\main\AndroidManifest.xml:14:5-71
	android:name
		ADDED from D:\amit_workspace_android\Jewerly\app\src\main\AndroidManifest.xml:14:22-68
uses-permission#android.permission.READ_PROFILE
ADDED from D:\amit_workspace_android\Jewerly\app\src\main\AndroidManifest.xml:15:5-71
	android:name
		ADDED from D:\amit_workspace_android\Jewerly\app\src\main\AndroidManifest.xml:15:22-68
uses-permission#android.permission.READ_CONTACTS
ADDED from D:\amit_workspace_android\Jewerly\app\src\main\AndroidManifest.xml:16:5-72
	android:name
		ADDED from D:\amit_workspace_android\Jewerly\app\src\main\AndroidManifest.xml:16:22-69
uses-permission#android.permission.ACCESS_WIFI_STATE
ADDED from D:\amit_workspace_android\Jewerly\app\src\main\AndroidManifest.xml:17:5-76
	android:name
		ADDED from D:\amit_workspace_android\Jewerly\app\src\main\AndroidManifest.xml:17:22-73
application
ADDED from D:\amit_workspace_android\Jewerly\app\src\main\AndroidManifest.xml:19:5-95:19
MERGED from [com.android.support.constraint:constraint-layout:1.0.2] C:\Users\HKCRFID\.android\build-cache\5dd461e524560eb2495d1390cd185b250fdb0f22\output\AndroidManifest.xml:9:5-20
MERGED from [com.android.support:design:25.3.1] C:\Users\HKCRFID\.android\build-cache\977ee11ac42b0a5ff53a28aa35bd8d7296d2b237\output\AndroidManifest.xml:29:5-20
MERGED from [com.android.support:appcompat-v7:25.3.1] C:\Users\HKCRFID\.android\build-cache\54add0fac0ad1b101ea907e7eb94424941591b19\output\AndroidManifest.xml:29:5-20
MERGED from [com.android.support:animated-vector-drawable:25.3.1] C:\Users\HKCRFID\.android\build-cache\58d9c7c03f56686c7b5225eec47fe91bf6c5d25b\output\AndroidManifest.xml:26:5-20
MERGED from [com.android.support:support-vector-drawable:25.3.1] C:\Users\HKCRFID\.android\build-cache\c8d88bcf746df96645633fb5660aa0c678091a00\output\AndroidManifest.xml:26:5-20
MERGED from [com.android.support:transition:25.3.1] C:\Users\HKCRFID\.android\build-cache\91c8ede90ee21e49024cf44c983224d70e9d6a27\output\AndroidManifest.xml:26:5-20
MERGED from [com.android.support:support-v4:25.3.1] C:\Users\HKCRFID\.android\build-cache\6c6f63e0f024099a83b85e79ca6ded4bd0782112\output\AndroidManifest.xml:29:5-20
MERGED from [com.android.support:support-fragment:25.3.1] C:\Users\HKCRFID\.android\build-cache\7f9c8b81ef754ab14014b54ba3a2c03598b1f08e\output\AndroidManifest.xml:29:5-20
MERGED from [com.android.support:support-media-compat:25.3.1] C:\Users\HKCRFID\.android\build-cache\801282595d5937b98b0ec16486785808a88c90c0\output\AndroidManifest.xml:29:5-20
MERGED from [com.android.support:support-core-ui:25.3.1] C:\Users\HKCRFID\.android\build-cache\a7d04562b6be7f8c395478935f9fac785de25b9c\output\AndroidManifest.xml:29:5-20
MERGED from [com.android.support:support-core-utils:25.3.1] C:\Users\HKCRFID\.android\build-cache\49530ae83405e2415183a9b2be46953186918e9c\output\AndroidManifest.xml:29:5-20
MERGED from [com.android.support:support-compat:25.3.1] C:\Users\HKCRFID\.android\build-cache\6d291679663071ccac9b3378645134a00aff3bf7\output\AndroidManifest.xml:29:5-20
MERGED from [com.android.support:cardview-v7:25.3.1] C:\Users\HKCRFID\.android\build-cache\f4492859537b41ab43c841a8370bd071f78f1555\output\AndroidManifest.xml:26:5-20
	android:label
		ADDED from D:\amit_workspace_android\Jewerly\app\src\main\AndroidManifest.xml:22:9-41
	android:supportsRtl
		ADDED from D:\amit_workspace_android\Jewerly\app\src\main\AndroidManifest.xml:24:9-35
	android:roundIcon
		ADDED from D:\amit_workspace_android\Jewerly\app\src\main\AndroidManifest.xml:23:9-49
	android:allowBackup
		ADDED from D:\amit_workspace_android\Jewerly\app\src\main\AndroidManifest.xml:20:9-35
	android:icon
		ADDED from D:\amit_workspace_android\Jewerly\app\src\main\AndroidManifest.xml:21:9-44
	android:theme
		ADDED from D:\amit_workspace_android\Jewerly\app\src\main\AndroidManifest.xml:25:9-40
activity#com.hkcrfid.jewerly.SplashActivity
ADDED from D:\amit_workspace_android\Jewerly\app\src\main\AndroidManifest.xml:26:9-34:20
	android:label
		ADDED from D:\amit_workspace_android\Jewerly\app\src\main\AndroidManifest.xml:27:13-45
	android:theme
		ADDED from D:\amit_workspace_android\Jewerly\app\src\main\AndroidManifest.xml:28:13-56
	android:name
		ADDED from D:\amit_workspace_android\Jewerly\app\src\main\AndroidManifest.xml:26:19-49
intent-filter#android.intent.action.MAIN+android.intent.category.LAUNCHER
ADDED from D:\amit_workspace_android\Jewerly\app\src\main\AndroidManifest.xml:29:13-33:29
action#android.intent.action.MAIN
ADDED from D:\amit_workspace_android\Jewerly\app\src\main\AndroidManifest.xml:30:17-69
	android:name
		ADDED from D:\amit_workspace_android\Jewerly\app\src\main\AndroidManifest.xml:30:25-66
category#android.intent.category.LAUNCHER
ADDED from D:\amit_workspace_android\Jewerly\app\src\main\AndroidManifest.xml:32:17-77
	android:name
		ADDED from D:\amit_workspace_android\Jewerly\app\src\main\AndroidManifest.xml:32:27-74
activity#com.hkcrfid.jewerly.LoginActivity
ADDED from D:\amit_workspace_android\Jewerly\app\src\main\AndroidManifest.xml:35:9-40:20
	android:label
		ADDED from D:\amit_workspace_android\Jewerly\app\src\main\AndroidManifest.xml:37:13-45
	android:theme
		ADDED from D:\amit_workspace_android\Jewerly\app\src\main\AndroidManifest.xml:38:13-56
	android:name
		ADDED from D:\amit_workspace_android\Jewerly\app\src\main\AndroidManifest.xml:36:13-42
activity#com.hkcrfid.jewerly.HomeActivity
ADDED from D:\amit_workspace_android\Jewerly\app\src\main\AndroidManifest.xml:41:9-44:68
	android:label
		ADDED from D:\amit_workspace_android\Jewerly\app\src\main\AndroidManifest.xml:43:13-33
	android:theme
		ADDED from D:\amit_workspace_android\Jewerly\app\src\main\AndroidManifest.xml:44:13-56
	android:name
		ADDED from D:\amit_workspace_android\Jewerly\app\src\main\AndroidManifest.xml:42:13-41
activity#com.hkcrfid.jewerly.SyscronizeActivity
ADDED from D:\amit_workspace_android\Jewerly\app\src\main\AndroidManifest.xml:45:9-52:20
	android:label
		ADDED from D:\amit_workspace_android\Jewerly\app\src\main\AndroidManifest.xml:47:13-39
	android:theme
		ADDED from D:\amit_workspace_android\Jewerly\app\src\main\AndroidManifest.xml:48:13-56
	android:name
		ADDED from D:\amit_workspace_android\Jewerly\app\src\main\AndroidManifest.xml:46:13-47
intent-filter#com.hkcrfid.jewerly.download
ADDED from D:\amit_workspace_android\Jewerly\app\src\main\AndroidManifest.xml:49:13-51:29
action#com.hkcrfid.jewerly.download
ADDED from D:\amit_workspace_android\Jewerly\app\src\main\AndroidManifest.xml:50:17-71
	android:name
		ADDED from D:\amit_workspace_android\Jewerly\app\src\main\AndroidManifest.xml:50:25-68
activity#com.hkcrfid.jewerly.InventoryActivity
ADDED from D:\amit_workspace_android\Jewerly\app\src\main\AndroidManifest.xml:53:9-56:68
	android:label
		ADDED from D:\amit_workspace_android\Jewerly\app\src\main\AndroidManifest.xml:55:13-38
	android:theme
		ADDED from D:\amit_workspace_android\Jewerly\app\src\main\AndroidManifest.xml:56:13-56
	android:name
		ADDED from D:\amit_workspace_android\Jewerly\app\src\main\AndroidManifest.xml:54:13-46
activity#com.hkcrfid.jewerly.BulkProcessAction
ADDED from D:\amit_workspace_android\Jewerly\app\src\main\AndroidManifest.xml:57:9-60:68
	android:label
		ADDED from D:\amit_workspace_android\Jewerly\app\src\main\AndroidManifest.xml:59:13-39
	android:theme
		ADDED from D:\amit_workspace_android\Jewerly\app\src\main\AndroidManifest.xml:60:13-56
	android:name
		ADDED from D:\amit_workspace_android\Jewerly\app\src\main\AndroidManifest.xml:58:13-46
activity#com.hkcrfid.jewerly.AssetRegistration
ADDED from D:\amit_workspace_android\Jewerly\app\src\main\AndroidManifest.xml:61:9-64:68
	android:label
		ADDED from D:\amit_workspace_android\Jewerly\app\src\main\AndroidManifest.xml:63:13-39
	android:theme
		ADDED from D:\amit_workspace_android\Jewerly\app\src\main\AndroidManifest.xml:64:13-56
	android:name
		ADDED from D:\amit_workspace_android\Jewerly\app\src\main\AndroidManifest.xml:62:13-46
activity#com.hkcrfid.jewerly.LocationRegistration
ADDED from D:\amit_workspace_android\Jewerly\app\src\main\AndroidManifest.xml:65:9-68:68
	android:label
		ADDED from D:\amit_workspace_android\Jewerly\app\src\main\AndroidManifest.xml:67:13-39
	android:theme
		ADDED from D:\amit_workspace_android\Jewerly\app\src\main\AndroidManifest.xml:68:13-56
	android:name
		ADDED from D:\amit_workspace_android\Jewerly\app\src\main\AndroidManifest.xml:66:13-49
activity#com.hkcrfid.jewerly.SingleSearchActivity
ADDED from D:\amit_workspace_android\Jewerly\app\src\main\AndroidManifest.xml:69:9-71:59
	android:theme
		ADDED from D:\amit_workspace_android\Jewerly\app\src\main\AndroidManifest.xml:71:13-56
	android:name
		ADDED from D:\amit_workspace_android\Jewerly\app\src\main\AndroidManifest.xml:70:13-49
activity#com.hkcrfid.jewerly.UnregistrationEpc
ADDED from D:\amit_workspace_android\Jewerly\app\src\main\AndroidManifest.xml:72:9-74:59
	android:theme
		ADDED from D:\amit_workspace_android\Jewerly\app\src\main\AndroidManifest.xml:74:13-56
	android:name
		ADDED from D:\amit_workspace_android\Jewerly\app\src\main\AndroidManifest.xml:73:13-46
activity#com.hkcrfid.jewerly.RfidSettingActivity
ADDED from D:\amit_workspace_android\Jewerly\app\src\main\AndroidManifest.xml:75:9-57
	android:name
		ADDED from D:\amit_workspace_android\Jewerly\app\src\main\AndroidManifest.xml:75:19-54
activity#com.hkcrfid.jewerly.ScanView
ADDED from D:\amit_workspace_android\Jewerly\app\src\main\AndroidManifest.xml:76:9-46
	android:name
		ADDED from D:\amit_workspace_android\Jewerly\app\src\main\AndroidManifest.xml:76:19-43
activity#com.hkcrfid.jewerly.ScanMode
ADDED from D:\amit_workspace_android\Jewerly\app\src\main\AndroidManifest.xml:77:9-46
	android:name
		ADDED from D:\amit_workspace_android\Jewerly\app\src\main\AndroidManifest.xml:77:19-43
activity#com.hkcrfid.jewerly.ScanModeGroup
ADDED from D:\amit_workspace_android\Jewerly\app\src\main\AndroidManifest.xml:78:9-51
	android:name
		ADDED from D:\amit_workspace_android\Jewerly\app\src\main\AndroidManifest.xml:78:19-48
activity#com.hkcrfid.jewerly.ReadWriteActivity
ADDED from D:\amit_workspace_android\Jewerly\app\src\main\AndroidManifest.xml:79:9-55
	android:name
		ADDED from D:\amit_workspace_android\Jewerly\app\src\main\AndroidManifest.xml:79:19-52
activity#com.hkcrfid.jewerly.TempRegActivity
ADDED from D:\amit_workspace_android\Jewerly\app\src\main\AndroidManifest.xml:80:9-53
	android:name
		ADDED from D:\amit_workspace_android\Jewerly\app\src\main\AndroidManifest.xml:80:19-50
activity#com.hkcrfid.jewerly.SearchAssetActivity
ADDED from D:\amit_workspace_android\Jewerly\app\src\main\AndroidManifest.xml:81:9-83:59
	android:theme
		ADDED from D:\amit_workspace_android\Jewerly\app\src\main\AndroidManifest.xml:83:13-56
	android:name
		ADDED from D:\amit_workspace_android\Jewerly\app\src\main\AndroidManifest.xml:82:13-48
service#com.hkcrfid.jewerly.DownloadService
ADDED from D:\amit_workspace_android\Jewerly\app\src\main\AndroidManifest.xml:85:9-87:40
	android:exported
		ADDED from D:\amit_workspace_android\Jewerly\app\src\main\AndroidManifest.xml:87:13-37
	android:name
		ADDED from D:\amit_workspace_android\Jewerly\app\src\main\AndroidManifest.xml:86:13-44
service#com.hkcrfid.jewerly.DownloadServiceCourse
ADDED from D:\amit_workspace_android\Jewerly\app\src\main\AndroidManifest.xml:88:9-94:19
	android:exported
		ADDED from D:\amit_workspace_android\Jewerly\app\src\main\AndroidManifest.xml:90:13-37
	android:name
		ADDED from D:\amit_workspace_android\Jewerly\app\src\main\AndroidManifest.xml:89:13-50
intent-filter#com.hkcrfid.jewerly.synchronization
ADDED from D:\amit_workspace_android\Jewerly\app\src\main\AndroidManifest.xml:91:13-93:29
action#com.hkcrfid.jewerly.synchronization
ADDED from D:\amit_workspace_android\Jewerly\app\src\main\AndroidManifest.xml:92:17-78
	android:name
		ADDED from D:\amit_workspace_android\Jewerly\app\src\main\AndroidManifest.xml:92:25-75
uses-sdk
INJECTED from D:\amit_workspace_android\Jewerly\app\src\main\AndroidManifest.xml reason: use-sdk injection requested
MERGED from [com.android.support.constraint:constraint-layout:1.0.2] C:\Users\HKCRFID\.android\build-cache\5dd461e524560eb2495d1390cd185b250fdb0f22\output\AndroidManifest.xml:5:5-7:41
MERGED from [com.android.support:design:25.3.1] C:\Users\HKCRFID\.android\build-cache\977ee11ac42b0a5ff53a28aa35bd8d7296d2b237\output\AndroidManifest.xml:21:5-23:62
MERGED from [com.android.support:appcompat-v7:25.3.1] C:\Users\HKCRFID\.android\build-cache\54add0fac0ad1b101ea907e7eb94424941591b19\output\AndroidManifest.xml:21:5-23:78
MERGED from [com.android.support:animated-vector-drawable:25.3.1] C:\Users\HKCRFID\.android\build-cache\58d9c7c03f56686c7b5225eec47fe91bf6c5d25b\output\AndroidManifest.xml:20:5-44
MERGED from [com.android.support:support-vector-drawable:25.3.1] C:\Users\HKCRFID\.android\build-cache\c8d88bcf746df96645633fb5660aa0c678091a00\output\AndroidManifest.xml:20:5-43
MERGED from [com.android.support:recyclerview-v7:25.3.1] C:\Users\HKCRFID\.android\build-cache\e2c2e8872219af21fc551386e52f59f43efc5231\output\AndroidManifest.xml:20:5-43
MERGED from [com.android.support:transition:25.3.1] C:\Users\HKCRFID\.android\build-cache\91c8ede90ee21e49024cf44c983224d70e9d6a27\output\AndroidManifest.xml:20:5-44
MERGED from [com.android.support:support-v4:25.3.1] C:\Users\HKCRFID\.android\build-cache\6c6f63e0f024099a83b85e79ca6ded4bd0782112\output\AndroidManifest.xml:21:5-23:54
MERGED from [com.android.support:support-fragment:25.3.1] C:\Users\HKCRFID\.android\build-cache\7f9c8b81ef754ab14014b54ba3a2c03598b1f08e\output\AndroidManifest.xml:21:5-23:60
MERGED from [com.android.support:support-media-compat:25.3.1] C:\Users\HKCRFID\.android\build-cache\801282595d5937b98b0ec16486785808a88c90c0\output\AndroidManifest.xml:21:5-23:63
MERGED from [com.android.support:support-core-ui:25.3.1] C:\Users\HKCRFID\.android\build-cache\a7d04562b6be7f8c395478935f9fac785de25b9c\output\AndroidManifest.xml:21:5-23:58
MERGED from [com.android.support:support-core-utils:25.3.1] C:\Users\HKCRFID\.android\build-cache\49530ae83405e2415183a9b2be46953186918e9c\output\AndroidManifest.xml:21:5-23:61
MERGED from [com.android.support:support-compat:25.3.1] C:\Users\HKCRFID\.android\build-cache\6d291679663071ccac9b3378645134a00aff3bf7\output\AndroidManifest.xml:21:5-23:58
MERGED from [com.android.support:cardview-v7:25.3.1] C:\Users\HKCRFID\.android\build-cache\f4492859537b41ab43c841a8370bd071f78f1555\output\AndroidManifest.xml:20:5-43
	tools:overrideLibrary
		ADDED from [com.android.support:design:25.3.1] C:\Users\HKCRFID\.android\build-cache\977ee11ac42b0a5ff53a28aa35bd8d7296d2b237\output\AndroidManifest.xml:23:9-59
	android:targetSdkVersion
		INJECTED from D:\amit_workspace_android\Jewerly\app\src\main\AndroidManifest.xml
		INJECTED from D:\amit_workspace_android\Jewerly\app\src\main\AndroidManifest.xml
	android:minSdkVersion
		INJECTED from D:\amit_workspace_android\Jewerly\app\src\main\AndroidManifest.xml
		INJECTED from D:\amit_workspace_android\Jewerly\app\src\main\AndroidManifest.xml
meta-data#android.support.VERSION
ADDED from [com.android.support:design:25.3.1] C:\Users\HKCRFID\.android\build-cache\977ee11ac42b0a5ff53a28aa35bd8d7296d2b237\output\AndroidManifest.xml:25:5-27:34
MERGED from [com.android.support:appcompat-v7:25.3.1] C:\Users\HKCRFID\.android\build-cache\54add0fac0ad1b101ea907e7eb94424941591b19\output\AndroidManifest.xml:25:5-27:34
MERGED from [com.android.support:animated-vector-drawable:25.3.1] C:\Users\HKCRFID\.android\build-cache\58d9c7c03f56686c7b5225eec47fe91bf6c5d25b\output\AndroidManifest.xml:22:5-24:34
MERGED from [com.android.support:support-vector-drawable:25.3.1] C:\Users\HKCRFID\.android\build-cache\c8d88bcf746df96645633fb5660aa0c678091a00\output\AndroidManifest.xml:22:5-24:34
MERGED from [com.android.support:recyclerview-v7:25.3.1] C:\Users\HKCRFID\.android\build-cache\e2c2e8872219af21fc551386e52f59f43efc5231\output\AndroidManifest.xml:22:5-24:34
MERGED from [com.android.support:transition:25.3.1] C:\Users\HKCRFID\.android\build-cache\91c8ede90ee21e49024cf44c983224d70e9d6a27\output\AndroidManifest.xml:22:5-24:34
MERGED from [com.android.support:support-v4:25.3.1] C:\Users\HKCRFID\.android\build-cache\6c6f63e0f024099a83b85e79ca6ded4bd0782112\output\AndroidManifest.xml:25:5-27:34
MERGED from [com.android.support:support-fragment:25.3.1] C:\Users\HKCRFID\.android\build-cache\7f9c8b81ef754ab14014b54ba3a2c03598b1f08e\output\AndroidManifest.xml:25:5-27:34
MERGED from [com.android.support:support-media-compat:25.3.1] C:\Users\HKCRFID\.android\build-cache\801282595d5937b98b0ec16486785808a88c90c0\output\AndroidManifest.xml:25:5-27:34
MERGED from [com.android.support:support-core-ui:25.3.1] C:\Users\HKCRFID\.android\build-cache\a7d04562b6be7f8c395478935f9fac785de25b9c\output\AndroidManifest.xml:25:5-27:34
MERGED from [com.android.support:support-core-utils:25.3.1] C:\Users\HKCRFID\.android\build-cache\49530ae83405e2415183a9b2be46953186918e9c\output\AndroidManifest.xml:25:5-27:34
MERGED from [com.android.support:support-compat:25.3.1] C:\Users\HKCRFID\.android\build-cache\6d291679663071ccac9b3378645134a00aff3bf7\output\AndroidManifest.xml:25:5-27:34
MERGED from [com.android.support:cardview-v7:25.3.1] C:\Users\HKCRFID\.android\build-cache\f4492859537b41ab43c841a8370bd071f78f1555\output\AndroidManifest.xml:22:5-24:34
	android:value
		ADDED from [com.android.support:design:25.3.1] C:\Users\HKCRFID\.android\build-cache\977ee11ac42b0a5ff53a28aa35bd8d7296d2b237\output\AndroidManifest.xml:27:9-31
	android:name
		ADDED from [com.android.support:design:25.3.1] C:\Users\HKCRFID\.android\build-cache\977ee11ac42b0a5ff53a28aa35bd8d7296d2b237\output\AndroidManifest.xml:26:9-47
